<?xml version="1.0" encoding="UTF-8"?>
<testsuite xmlns:xsi="http://www.w3.org/2001/XMLSchema-instance" xsi:schemaLocation="https://maven.apache.org/surefire/maven-surefire-plugin/xsd/surefire-test-report.xsd" name="tc0.TC000" time="821.77" tests="1" errors="0" skipped="0" failures="0">
  <properties>
    <property name="java.runtime.name" value="Java(TM) SE Runtime Environment"/>
    <property name="sun.boot.library.path" value="/mnt/gaiagpfs/apps/resif/data/production/v0.3-20170713/default/software/lang/Java/1.8.0_121/jre/lib/amd64"/>
    <property name="java.vm.version" value="25.121-b13"/>
    <property name="java.vm.vendor" value="Oracle Corporation"/>
    <property name="maven.multiModuleProjectDirectory" value="/work/users/cwang/Journal/STUIOS/HOD/TestDriver"/>
    <property name="java.vendor.url" value="http://java.oracle.com/"/>
    <property name="path.separator" value=":"/>
    <property name="guice.disable.misplaced.annotation.check" value="true"/>
    <property name="java.vm.name" value="Java HotSpot(TM) 64-Bit Server VM"/>
    <property name="file.encoding.pkg" value="sun.io"/>
    <property name="user.country" value="US"/>
    <property name="sun.java.launcher" value="SUN_STANDARD"/>
    <property name="sun.os.patch.level" value="unknown"/>
    <property name="test" value="tc0.TC000"/>
    <property name="java.vm.specification.name" value="Java Virtual Machine Specification"/>
    <property name="user.dir" value="/mnt/gaiagpfs/users/workdirs/cwang/Journal/STUIOS/HOD/TestDriver"/>
    <property name="java.runtime.version" value="1.8.0_121-b13"/>
    <property name="java.awt.graphicsenv" value="sun.awt.X11GraphicsEnvironment"/>
    <property name="java.endorsed.dirs" value="/mnt/gaiagpfs/apps/resif/data/production/v0.3-20170713/default/software/lang/Java/1.8.0_121/jre/lib/endorsed"/>
    <property name="os.arch" value="amd64"/>
    <property name="java.io.tmpdir" value="/tmp"/>
    <property name="line.separator" value="&#10;"/>
    <property name="java.vm.specification.vendor" value="Oracle Corporation"/>
    <property name="os.name" value="Linux"/>
    <property name="classworlds.conf" value="/home/users/cwang/.local/easybuild/software/devel/Maven/3.2.3/bin/m2.conf"/>
    <property name="sun.jnu.encoding" value="ANSI_X3.4-1968"/>
    <property name="java.library.path" value="/opt/apps/resif/data/production/v0.3-20170713/default/software/lang/R/3.4.0-intel-2017a-X11-20170314-bare/lib64/R/lib:/opt/apps/resif/data/production/v0.3-20170713/default/software/lang/R/3.4.0-intel-2017a-X11-20170314-bare/lib64:/opt/apps/resif/data/production/v0.3-20170713/default/software/numlib/NLopt/2.4.2-intel-2017a/lib:/opt/apps/resif/data/production/v0.3-20170713/default/software/lib/PROJ/4.9.3-intel-2017a/lib:/opt/apps/resif/data/production/v0.3-20170713/default/software/data/GDAL/2.1.3-intel-2017a-Python-2.7.13/lib:/opt/apps/resif/data/production/v0.3-20170713/default/software/vis/JasPer/2.0.12-intel-2017a/lib:/opt/apps/resif/data/production/v0.3-20170713/default/software/math/GEOS/3.6.1-intel-2017a-Python-2.7.13/lib:/opt/apps/resif/data/production/v0.3-20170713/default/software/data/netCDF/4.4.1.1-intel-2017a/lib:/opt/apps/resif/data/production/v0.3-20170713/default/software/data/HDF5/1.10.0-patch1-intel-2017a/lib:/opt/apps/resif/data/production/v0.3-20170713/default/software/tools/Szip/2.1-intel-2017a/lib:/opt/apps/resif/data/production/v0.3-20170713/default/software/lang/Python/2.7.13-intel-2017a/lib/python2.7/site-packages/numpy-1.12.1-py2.7-linux-x86_64.egg/numpy/core/lib:/opt/apps/resif/data/production/v0.3-20170713/default/software/lang/Python/2.7.13-intel-2017a/lib:/opt/apps/resif/data/production/v0.3-20170713/default/software/tools/cURL/7.53.1-GCCcore-6.3.0/lib:/opt/apps/resif/data/production/v0.3-20170713/default/software/vis/Tk/8.6.6-intel-2017a/lib:/opt/apps/resif/data/production/v0.3-20170713/default/software/lib/LibTIFF/4.0.7-intel-2017a/lib:/opt/apps/resif/data/production/v0.3-20170713/default/software/lib/libjpeg-turbo/1.5.1-intel-2017a/lib:/opt/apps/resif/data/production/v0.3-20170713/default/software/devel/SQLite/3.17.0-GCCcore-6.3.0/lib:/opt/apps/resif/data/production/v0.3-20170713/default/software/lang/Tcl/8.6.6-GCCcore-6.3.0/lib:/opt/apps/resif/data/production/v0.3-20170713/default/software/devel/ncurses/6.0-intel-2017a/lib:/opt/apps/resif/data/production/v0.3-20170713/default/software/lib/libreadline/7.0-GCCcore-6.3.0/lib:/opt/apps/resif/data/production/v0.3-20170713/default/software/vis/cairo/1.14.8-intel-2017a/lib:/opt/apps/resif/data/production/v0.3-20170713/default/software/vis/GLib/2.52.0-intel-2017a/lib:/opt/apps/resif/data/production/v0.3-20170713/default/software/tools/util-linux/2.29.2-intel-2017a/lib:/opt/apps/resif/data/production/v0.3-20170713/default/software/devel/PCRE/8.40-intel-2017a/lib:/opt/apps/resif/data/production/v0.3-20170713/default/software/vis/gettext/0.19.8.1-GCCcore-6.3.0/lib:/opt/apps/resif/data/production/v0.3-20170713/default/software/lib/libxml2/2.9.4-GCCcore-6.3.0/lib:/opt/apps/resif/data/production/v0.3-20170713/default/software/tools/XZ/5.2.3-GCCcore-6.3.0/lib:/opt/apps/resif/data/production/v0.3-20170713/default/software/lib/libffi/3.2.1-intel-2017a/lib:/opt/apps/resif/data/production/v0.3-20170713/default/software/vis/pixman/0.34.0-GCCcore-6.3.0/lib:/opt/apps/resif/data/production/v0.3-20170713/default/software/tools/bzip2/1.0.6-intel-2017a/lib:/opt/apps/resif/data/production/v0.3-20170713/default/software/vis/libGLU/9.0.0-intel-2017a/lib:/opt/apps/resif/data/production/v0.3-20170713/default/software/vis/Mesa/17.0.2-intel-2017a/lib:/opt/apps/resif/data/production/v0.3-20170713/default/software/compiler/LLVM/4.0.0-intel-2017a/lib:/opt/apps/resif/data/production/v0.3-20170713/default/software/lib/libdrm/2.4.76-intel-2017a/lib:/opt/apps/resif/data/production/v0.3-20170713/default/software/lib/nettle/3.3-intel-2017a/lib:/opt/apps/resif/data/production/v0.3-20170713/default/software/math/GMP/6.1.2-intel-2017a/lib:/opt/apps/resif/data/production/v0.3-20170713/default/software/vis/X11/20170314-GCCcore-6.3.0/lib:/opt/apps/resif/data/production/v0.3-20170713/default/software/vis/fontconfig/2.12.1-GCCcore-6.3.0-libpng-1.6.29/lib:/opt/apps/resif/data/production/v0.3-20170713/default/software/vis/freetype/2.7.1-GCCcore-6.3.0-libpng-1.6.29/lib:/opt/apps/resif/data/production/v0.3-20170713/default/software/lib/libpng/1.6.29-GCCcore-6.3.0/lib:/opt/apps/resif/data/production/v0.3-20170713/default/software/lib/zlib/1.2.11-GCCcore-6.3.0/lib:/opt/apps/resif/data/production/v0.3-20170713/default/software/tools/expat/2.2.0-GCCcore-6.3.0/lib:/opt/apps/resif/data/production/v0.3-20170713/default/software/numlib/imkl/2017.1.132-iimpi-2017a/mkl/lib/intel64:/opt/apps/resif/data/production/v0.3-20170713/default/software/numlib/imkl/2017.1.132-iimpi-2017a/lib/intel64:/opt/apps/resif/data/production/v0.3-20170713/default/software/mpi/impi/2017.1.132-iccifort-2017.1.132-GCC-6.3.0-2.27/lib64:/opt/apps/resif/data/production/v0.3-20170713/default/software/compiler/ifort/2017.1.132-GCC-6.3.0-2.27/compilers_and_libraries_2017.1.132/linux/compiler/lib/intel64:/opt/apps/resif/data/production/v0.3-20170713/default/software/compiler/icc/2017.1.132-GCC-6.3.0-2.27/compilers_and_libraries_2017.1.132/linux/compiler/lib/intel64:/opt/apps/resif/data/production/v0.3-20170713/default/software/tools/binutils/2.27-GCCcore-6.3.0/lib:/opt/apps/resif/data/production/v0.3-20170713/default/software/compiler/GCCcore/6.3.0/lib/gcc/x86_64-pc-linux-gnu/6.3.0:/opt/apps/resif/data/production/v0.3-20170713/default/software/compiler/GCCcore/6.3.0/lib64:/opt/apps/resif/data/production/v0.3-20170713/default/software/compiler/GCCcore/6.3.0/lib:/opt/apps/resif/data/production/v0.3-20170713/default/software/lang/Java/1.8.0_121/lib:/opt/apps/resif/devel/v1.1-20150414/core/software/compiler/icc/2015.3.187/lib/intel64:/usr/java/packages/lib/amd64:/usr/lib64:/lib64:/lib:/usr/lib"/>
    <property name="maven.conf" value="/home/users/cwang/.local/easybuild/software/devel/Maven/3.2.3/conf"/>
    <property name="java.specification.name" value="Java Platform API Specification"/>
    <property name="java.class.version" value="52.0"/>
    <property name="sun.management.compiler" value="HotSpot 64-Bit Tiered Compilers"/>
    <property name="os.version" value="3.16.0-4-amd64"/>
    <property name="library.jansi.path" value="/home/users/cwang/.local/easybuild/software/devel/Maven/3.2.3/lib/jansi-native/linux64"/>
    <property name="user.home" value="/home/users/cwang"/>
    <property name="user.timezone" value="Europe/Luxembourg"/>
    <property name="java.awt.printerjob" value="sun.print.PSPrinterJob"/>
    <property name="java.specification.version" value="1.8"/>
    <property name="file.encoding" value="ANSI_X3.4-1968"/>
    <property name="trimStackTrace" value="false"/>
    <property name="user.name" value="cwang"/>
    <property name="java.class.path" value="/home/users/cwang/.local/easybuild/software/devel/Maven/3.2.3/boot/plexus-classworlds-2.5.2.jar"/>
    <property name="java.vm.specification.version" value="1.8"/>
    <property name="sun.arch.data.model" value="64"/>
    <property name="java.home" value="/mnt/gaiagpfs/apps/resif/data/production/v0.3-20170713/default/software/lang/Java/1.8.0_121/jre"/>
    <property name="sun.java.command" value="org.codehaus.plexus.classworlds.launcher.Launcher -DtrimStackTrace=false -Dtest=tc0.TC000 test"/>
    <property name="java.specification.vendor" value="Oracle Corporation"/>
    <property name="user.language" value="en"/>
    <property name="awt.toolkit" value="sun.awt.X11.XToolkit"/>
    <property name="java.vm.info" value="mixed mode"/>
    <property name="java.version" value="1.8.0_121"/>
    <property name="java.ext.dirs" value="/mnt/gaiagpfs/apps/resif/data/production/v0.3-20170713/default/software/lang/Java/1.8.0_121/jre/lib/ext:/usr/java/packages/lib/ext"/>
    <property name="securerandom.source" value="file:/dev/./urandom"/>
    <property name="sun.boot.class.path" value="/mnt/gaiagpfs/apps/resif/data/production/v0.3-20170713/default/software/lang/Java/1.8.0_121/jre/lib/resources.jar:/mnt/gaiagpfs/apps/resif/data/production/v0.3-20170713/default/software/lang/Java/1.8.0_121/jre/lib/rt.jar:/mnt/gaiagpfs/apps/resif/data/production/v0.3-20170713/default/software/lang/Java/1.8.0_121/jre/lib/sunrsasign.jar:/mnt/gaiagpfs/apps/resif/data/production/v0.3-20170713/default/software/lang/Java/1.8.0_121/jre/lib/jsse.jar:/mnt/gaiagpfs/apps/resif/data/production/v0.3-20170713/default/software/lang/Java/1.8.0_121/jre/lib/jce.jar:/mnt/gaiagpfs/apps/resif/data/production/v0.3-20170713/default/software/lang/Java/1.8.0_121/jre/lib/charsets.jar:/mnt/gaiagpfs/apps/resif/data/production/v0.3-20170713/default/software/lang/Java/1.8.0_121/jre/lib/jfr.jar:/mnt/gaiagpfs/apps/resif/data/production/v0.3-20170713/default/software/lang/Java/1.8.0_121/jre/classes"/>
    <property name="java.vendor" value="Oracle Corporation"/>
    <property name="maven.home" value="/home/users/cwang/.local/easybuild/software/devel/Maven/3.2.3"/>
    <property name="file.separator" value="/"/>
    <property name="java.vendor.url.bug" value="http://bugreport.sun.com/bugreport/"/>
    <property name="sun.cpu.endian" value="little"/>
    <property name="sun.io.unicode.encoding" value="UnicodeLittle"/>
    <property name="sun.cpu.isalist" value=""/>
  </properties>
  <testcase name="execute" classname="tc0.TC000" time="821.518"/>
</testsuite>