/mnt/gaiagpfs/users/workdirs/cwang/Journal/STUIOS/HOD/TestDriver/src/test/java/stuios/TC048.java
/mnt/gaiagpfs/users/workdirs/cwang/Journal/STUIOS/HOD/TestDriver/src/test/java/stuios/TC081.java
/mnt/gaiagpfs/users/workdirs/cwang/Journal/STUIOS/HOD/TestDriver/src/test/java/tc0/TC000.java
/mnt/gaiagpfs/users/workdirs/cwang/Journal/STUIOS/HOD/TestDriver/src/test/java/tc0/TC029.java
/mnt/gaiagpfs/users/workdirs/cwang/Journal/STUIOS/HOD/TestDriver/src/test/java/stuios/TC079.java
/mnt/gaiagpfs/users/workdirs/cwang/Journal/STUIOS/HOD/TestDriver/src/test/java/stuios/TC034.java
/mnt/gaiagpfs/users/workdirs/cwang/Journal/STUIOS/HOD/TestDriver/src/test/java/stuios/TC082.java
/mnt/gaiagpfs/users/workdirs/cwang/Journal/STUIOS/HOD/TestDriver/src/test/java/stuios/TC096.java
/mnt/gaiagpfs/users/workdirs/cwang/Journal/STUIOS/HOD/TestDriver/src/test/java/tc0/TC014.java
/mnt/gaiagpfs/users/workdirs/cwang/Journal/STUIOS/HOD/TestDriver/src/test/java/stuios/TC004.java
/mnt/gaiagpfs/users/workdirs/cwang/Journal/STUIOS/HOD/TestDriver/src/test/java/stuios/TC035.java
/mnt/gaiagpfs/users/workdirs/cwang/Journal/STUIOS/HOD/TestDriver/src/test/java/stuios/TC049.java
/mnt/gaiagpfs/users/workdirs/cwang/Journal/STUIOS/HOD/TestDriver/src/test/java/tc0/TC059.java
/mnt/gaiagpfs/users/workdirs/cwang/Journal/STUIOS/HOD/TestDriver/src/test/java/tc0/TC091.java
/mnt/gaiagpfs/users/workdirs/cwang/Journal/STUIOS/HOD/TestDriver/src/test/java/tc0/TC058.java
/mnt/gaiagpfs/users/workdirs/cwang/Journal/STUIOS/HOD/TestDriver/src/test/java/tc0/TC080.java
/mnt/gaiagpfs/users/workdirs/cwang/Journal/STUIOS/HOD/TestDriver/src/test/java/stuios/TC077.java
/mnt/gaiagpfs/users/workdirs/cwang/Journal/STUIOS/HOD/TestDriver/src/test/java/stuios/TC052.java
/mnt/gaiagpfs/users/workdirs/cwang/Journal/STUIOS/HOD/TestDriver/src/test/java/tc0/TC044.java
/mnt/gaiagpfs/users/workdirs/cwang/Journal/STUIOS/HOD/TestDriver/src/test/java/tc0/TC077.java
/mnt/gaiagpfs/users/workdirs/cwang/Journal/STUIOS/HOD/TestDriver/src/test/java/tc0/TC063.java
/mnt/gaiagpfs/users/workdirs/cwang/Journal/STUIOS/HOD/TestDriver/src/test/java/tc0/TC061.java
/mnt/gaiagpfs/users/workdirs/cwang/Journal/STUIOS/HOD/TestDriver/src/test/java/stuios/TC063.java
/mnt/gaiagpfs/users/workdirs/cwang/Journal/STUIOS/HOD/TestDriver/src/test/java/stuios/TC033.java
/mnt/gaiagpfs/users/workdirs/cwang/Journal/STUIOS/HOD/TestDriver/src/test/java/tc0/TC088.java
/mnt/gaiagpfs/users/workdirs/cwang/Journal/STUIOS/HOD/TestDriver/src/test/java/tc0/TC015.java
/mnt/gaiagpfs/users/workdirs/cwang/Journal/STUIOS/HOD/TestDriver/src/test/java/tc0/TC034.java
/mnt/gaiagpfs/users/workdirs/cwang/Journal/STUIOS/HOD/TestDriver/src/test/java/tc0/TC087.java
/mnt/gaiagpfs/users/workdirs/cwang/Journal/STUIOS/HOD/TestDriver/src/test/java/stuios/TC068.java
/mnt/gaiagpfs/users/workdirs/cwang/Journal/STUIOS/HOD/TestDriver/src/test/java/stuios/TC053.java
/mnt/gaiagpfs/users/workdirs/cwang/Journal/STUIOS/HOD/TestDriver/src/test/java/tc0/TC090.java
/mnt/gaiagpfs/users/workdirs/cwang/Journal/STUIOS/HOD/TestDriver/src/test/java/stuios/TC015.java
/mnt/gaiagpfs/users/workdirs/cwang/Journal/STUIOS/HOD/TestDriver/src/test/java/tc0/TC039.java
/mnt/gaiagpfs/users/workdirs/cwang/Journal/STUIOS/HOD/TestDriver/src/test/java/stuios/TC062.java
/mnt/gaiagpfs/users/workdirs/cwang/Journal/STUIOS/HOD/TestDriver/src/test/java/tc0/TC033.java
/mnt/gaiagpfs/users/workdirs/cwang/Journal/STUIOS/HOD/TestDriver/src/test/java/tc0/TC078.java
/mnt/gaiagpfs/users/workdirs/cwang/Journal/STUIOS/HOD/TestDriver/src/test/java/tc0/TC097.java
/mnt/gaiagpfs/users/workdirs/cwang/Journal/STUIOS/HOD/TestDriver/src/test/java/stuios/TC024.java
/mnt/gaiagpfs/users/workdirs/cwang/Journal/STUIOS/HOD/TestDriver/src/test/java/stuios/TC097.java
/mnt/gaiagpfs/users/workdirs/cwang/Journal/STUIOS/HOD/TestDriver/src/test/java/tc0/TC024.java
/mnt/gaiagpfs/users/workdirs/cwang/Journal/STUIOS/HOD/TestDriver/src/test/java/stuios/TC005.java
/mnt/gaiagpfs/users/workdirs/cwang/Journal/STUIOS/HOD/TestDriver/src/test/java/tc0/TC005.java
/mnt/gaiagpfs/users/workdirs/cwang/Journal/STUIOS/HOD/TestDriver/src/test/java/stuios/TC078.java
/mnt/gaiagpfs/users/workdirs/cwang/Journal/STUIOS/HOD/TestDriver/src/test/java/tc0/TC043.java
/mnt/gaiagpfs/users/workdirs/cwang/Journal/STUIOS/HOD/TestDriver/src/test/java/stuios/TC072.java
/mnt/gaiagpfs/users/workdirs/cwang/Journal/STUIOS/HOD/TestDriver/src/test/java/tc0/TC081.java
/mnt/gaiagpfs/users/workdirs/cwang/Journal/STUIOS/HOD/TestDriver/src/test/java/stuios/TC091.java
/mnt/gaiagpfs/users/workdirs/cwang/Journal/STUIOS/HOD/TestDriver/src/test/java/tc0/TC049.java
/mnt/gaiagpfs/users/workdirs/cwang/Journal/STUIOS/HOD/TestDriver/src/test/java/tc0/TC062.java
/mnt/gaiagpfs/users/workdirs/cwang/Journal/STUIOS/HOD/TestDriver/src/test/java/stuios/TC059.java
/mnt/gaiagpfs/users/workdirs/cwang/Journal/STUIOS/HOD/TestDriver/src/test/java/stuios/TC009.java
/mnt/gaiagpfs/users/workdirs/cwang/Journal/STUIOS/HOD/TestDriver/src/test/java/tc0/TC084.java
/mnt/gaiagpfs/users/workdirs/cwang/Journal/STUIOS/HOD/TestDriver/src/test/java/tc0/TC098.java
/mnt/gaiagpfs/users/workdirs/cwang/Journal/STUIOS/HOD/TestDriver/src/test/java/stuios/TC026.java
/mnt/gaiagpfs/users/workdirs/cwang/Journal/STUIOS/HOD/TestDriver/src/test/java/tc0/TC053.java
/mnt/gaiagpfs/users/workdirs/cwang/Journal/STUIOS/HOD/TestDriver/src/test/java/stuios/TC043.java
/mnt/gaiagpfs/users/workdirs/cwang/Journal/STUIOS/HOD/TestDriver/src/test/java/tc0/TC022.java
/mnt/gaiagpfs/users/workdirs/cwang/Journal/STUIOS/HOD/TestDriver/src/test/java/stuios/TC057.java
/mnt/gaiagpfs/users/workdirs/cwang/Journal/STUIOS/HOD/TestDriver/src/test/java/tc0/TC067.java
/mnt/gaiagpfs/users/workdirs/cwang/Journal/STUIOS/HOD/TestDriver/src/test/java/stuios/TC012.java
/mnt/gaiagpfs/users/workdirs/cwang/Journal/STUIOS/HOD/TestDriver/src/test/java/tc0/TC036.java
/mnt/gaiagpfs/users/workdirs/cwang/Journal/STUIOS/HOD/TestDriver/src/test/java/stuios/TC088.java
/mnt/gaiagpfs/users/workdirs/cwang/Journal/STUIOS/HOD/TestDriver/src/test/java/tc0/TC055.java
/mnt/gaiagpfs/users/workdirs/cwang/Journal/STUIOS/HOD/TestDriver/src/test/java/stuios/TC069.java
/mnt/gaiagpfs/users/workdirs/cwang/Journal/STUIOS/HOD/TestDriver/src/test/java/stuios/TC060.java
/mnt/gaiagpfs/users/workdirs/cwang/Journal/STUIOS/HOD/TestDriver/src/test/java/tc0/TC072.java
/mnt/gaiagpfs/users/workdirs/cwang/Journal/STUIOS/HOD/TestDriver/src/test/java/stuios/TC074.java
/mnt/gaiagpfs/users/workdirs/cwang/Journal/STUIOS/HOD/TestDriver/src/test/java/tc0/TC069.java
/mnt/gaiagpfs/users/workdirs/cwang/Journal/STUIOS/HOD/TestDriver/src/test/java/stuios/TC055.java
/mnt/gaiagpfs/users/workdirs/cwang/Journal/STUIOS/HOD/TestDriver/src/test/java/tc0/TC007.java
/mnt/gaiagpfs/users/workdirs/cwang/Journal/STUIOS/HOD/TestDriver/src/test/java/stuios/TC028.java
/mnt/gaiagpfs/users/workdirs/cwang/Journal/STUIOS/HOD/TestDriver/src/test/java/tc0/TC096.java
/mnt/gaiagpfs/users/workdirs/cwang/Journal/STUIOS/HOD/TestDriver/src/test/java/stuios/TC041.java
/mnt/gaiagpfs/users/workdirs/cwang/Journal/STUIOS/HOD/TestDriver/src/test/java/stuios/TC014.java
/mnt/gaiagpfs/users/workdirs/cwang/Journal/STUIOS/HOD/TestDriver/src/test/java/tc0/TC020.java
/mnt/gaiagpfs/users/workdirs/cwang/Journal/STUIOS/HOD/TestDriver/src/test/java/tc0/TC079.java
/mnt/gaiagpfs/users/workdirs/cwang/Journal/STUIOS/HOD/TestDriver/src/test/java/stuios/TC045.java
/mnt/gaiagpfs/users/workdirs/cwang/Journal/STUIOS/HOD/TestDriver/src/test/java/stuios/TC070.java
/mnt/gaiagpfs/users/workdirs/cwang/Journal/STUIOS/HOD/TestDriver/src/test/java/tc0/TC048.java
/mnt/gaiagpfs/users/workdirs/cwang/Journal/STUIOS/HOD/TestDriver/src/test/java/stuios/TC076.java
/mnt/gaiagpfs/users/workdirs/cwang/Journal/STUIOS/HOD/TestDriver/src/test/java/stuios/TC000.java
/mnt/gaiagpfs/users/workdirs/cwang/Journal/STUIOS/HOD/TestDriver/src/test/java/tc0/TC026.java
/mnt/gaiagpfs/users/workdirs/cwang/Journal/STUIOS/HOD/TestDriver/src/test/java/tc0/TC003.java
/mnt/gaiagpfs/users/workdirs/cwang/Journal/STUIOS/HOD/TestDriver/src/test/java/stuios/TC098.java
/mnt/gaiagpfs/users/workdirs/cwang/Journal/STUIOS/HOD/TestDriver/src/test/java/tc0/TC082.java
/mnt/gaiagpfs/users/workdirs/cwang/Journal/STUIOS/HOD/TestDriver/src/test/java/stuios/TC093.java
/mnt/gaiagpfs/users/workdirs/cwang/Journal/STUIOS/HOD/TestDriver/src/test/java/stuios/TC007.java
/mnt/gaiagpfs/users/workdirs/cwang/Journal/STUIOS/HOD/TestDriver/src/test/java/stuios/TC019.java
/mnt/gaiagpfs/users/workdirs/cwang/Journal/STUIOS/HOD/TestDriver/src/test/java/tc0/TC060.java
/mnt/gaiagpfs/users/workdirs/cwang/Journal/STUIOS/HOD/TestDriver/src/test/java/tc0/TC041.java
/mnt/gaiagpfs/users/workdirs/cwang/Journal/STUIOS/HOD/TestDriver/src/test/java/tc0/TC086.java
/mnt/gaiagpfs/users/workdirs/cwang/Journal/STUIOS/HOD/TestDriver/src/test/java/stuios/TC038.java
/mnt/gaiagpfs/users/workdirs/cwang/Journal/STUIOS/HOD/TestDriver/src/test/java/tc0/TC009.java
/mnt/gaiagpfs/users/workdirs/cwang/Journal/STUIOS/HOD/TestDriver/src/test/java/stuios/TC010.java
/mnt/gaiagpfs/users/workdirs/cwang/Journal/STUIOS/HOD/TestDriver/src/test/java/tc0/TC019.java
/mnt/gaiagpfs/users/workdirs/cwang/Journal/STUIOS/HOD/TestDriver/src/test/java/tc0/TC010.java
/mnt/gaiagpfs/users/workdirs/cwang/Journal/STUIOS/HOD/TestDriver/src/test/java/stuios/TC016.java
/mnt/gaiagpfs/users/workdirs/cwang/Journal/STUIOS/HOD/TestDriver/src/test/java/tc0/TC032.java
/mnt/gaiagpfs/users/workdirs/cwang/Journal/STUIOS/HOD/TestDriver/src/test/java/stuios/TC064.java
/mnt/gaiagpfs/users/workdirs/cwang/Journal/STUIOS/HOD/TestDriver/src/test/java/tc0/TC038.java
/mnt/gaiagpfs/users/workdirs/cwang/Journal/STUIOS/HOD/TestDriver/src/test/java/stuios/TC086.java
/mnt/gaiagpfs/users/workdirs/cwang/Journal/STUIOS/HOD/TestDriver/src/test/java/tc0/TC051.java
/mnt/gaiagpfs/users/workdirs/cwang/Journal/STUIOS/HOD/TestDriver/src/test/java/tc0/TC057.java
/mnt/gaiagpfs/users/workdirs/cwang/Journal/STUIOS/HOD/TestDriver/src/test/java/tc0/TC070.java
/mnt/gaiagpfs/users/workdirs/cwang/Journal/STUIOS/HOD/TestDriver/src/test/java/stuios/TC067.java
/mnt/gaiagpfs/users/workdirs/cwang/Journal/STUIOS/HOD/TestDriver/src/test/java/tc0/TC076.java
/mnt/gaiagpfs/users/workdirs/cwang/Journal/STUIOS/HOD/TestDriver/src/test/java/tc0/TC031.java
/mnt/gaiagpfs/users/workdirs/cwang/Journal/STUIOS/HOD/TestDriver/src/test/java/stuios/TC003.java
/mnt/gaiagpfs/users/workdirs/cwang/Journal/STUIOS/HOD/TestDriver/src/test/java/tc0/TC093.java
/mnt/gaiagpfs/users/workdirs/cwang/Journal/STUIOS/HOD/TestDriver/src/test/java/stuios/TC095.java
/mnt/gaiagpfs/users/workdirs/cwang/Journal/STUIOS/HOD/TestDriver/src/test/java/tc0/TC045.java
/mnt/gaiagpfs/users/workdirs/cwang/Journal/STUIOS/HOD/TestDriver/src/test/java/stuios/TC050.java
/mnt/gaiagpfs/users/workdirs/cwang/Journal/STUIOS/HOD/TestDriver/src/test/java/tc0/TC028.java
/mnt/gaiagpfs/users/workdirs/cwang/Journal/STUIOS/HOD/TestDriver/src/test/java/stuios/TC018.java
/mnt/gaiagpfs/users/workdirs/cwang/Journal/STUIOS/HOD/TestDriver/src/test/java/tc0/TC089.java
/mnt/gaiagpfs/users/workdirs/cwang/Journal/STUIOS/HOD/TestDriver/src/test/java/tc0/TC075.java
/mnt/gaiagpfs/users/workdirs/cwang/Journal/STUIOS/HOD/TestDriver/src/test/java/stuios/TC020.java
/mnt/gaiagpfs/users/workdirs/cwang/Journal/STUIOS/HOD/TestDriver/src/test/java/stuios/TC065.java
/mnt/gaiagpfs/users/workdirs/cwang/Journal/STUIOS/HOD/TestDriver/src/test/java/tc0/TC030.java
/mnt/gaiagpfs/users/workdirs/cwang/Journal/STUIOS/HOD/TestDriver/src/test/java/tc0/TC094.java
/mnt/gaiagpfs/users/workdirs/cwang/Journal/STUIOS/HOD/TestDriver/src/test/java/stuios/TC051.java
/mnt/gaiagpfs/users/workdirs/cwang/Journal/STUIOS/HOD/TestDriver/src/test/java/stuios/TC066.java
/mnt/gaiagpfs/users/workdirs/cwang/Journal/STUIOS/HOD/TestDriver/src/test/java/tc0/TC047.java
/mnt/gaiagpfs/users/workdirs/cwang/Journal/STUIOS/HOD/TestDriver/src/test/java/stuios/TC047.java
/mnt/gaiagpfs/users/workdirs/cwang/Journal/STUIOS/HOD/TestDriver/src/test/java/tc0/TC074.java
/mnt/gaiagpfs/users/workdirs/cwang/Journal/STUIOS/HOD/TestDriver/src/test/java/tc0/TC050.java
/mnt/gaiagpfs/users/workdirs/cwang/Journal/STUIOS/HOD/TestDriver/src/test/java/tc0/TC001.java
/mnt/gaiagpfs/users/workdirs/cwang/Journal/STUIOS/HOD/TestDriver/src/test/java/stuios/TC036.java
/mnt/gaiagpfs/users/workdirs/cwang/Journal/STUIOS/HOD/TestDriver/src/test/java/stuios/TC017.java
/mnt/gaiagpfs/users/workdirs/cwang/Journal/STUIOS/HOD/TestDriver/src/test/java/tc0/TC012.java
/mnt/gaiagpfs/users/workdirs/cwang/Journal/STUIOS/HOD/TestDriver/src/test/java/stuios/TC022.java
/mnt/gaiagpfs/users/workdirs/cwang/Journal/STUIOS/HOD/TestDriver/src/test/java/stuios/TC084.java
/mnt/gaiagpfs/users/workdirs/cwang/Journal/STUIOS/HOD/TestDriver/src/test/java/stuios/TC031.java
/mnt/gaiagpfs/users/workdirs/cwang/Journal/STUIOS/HOD/TestDriver/src/test/java/stuios/TC037.java
/mnt/gaiagpfs/users/workdirs/cwang/Journal/STUIOS/HOD/TestDriver/src/test/java/stuios/TC085.java
/mnt/gaiagpfs/users/workdirs/cwang/Journal/STUIOS/HOD/TestDriver/src/test/java/stuios/TC040.java
/mnt/gaiagpfs/users/workdirs/cwang/Journal/STUIOS/HOD/TestDriver/src/test/java/tc0/TC011.java
/mnt/gaiagpfs/users/workdirs/cwang/Journal/STUIOS/HOD/TestDriver/src/test/java/tc0/TC056.java
/mnt/gaiagpfs/users/workdirs/cwang/Journal/STUIOS/HOD/TestDriver/src/test/java/tc0/TC017.java
/mnt/gaiagpfs/users/workdirs/cwang/Journal/STUIOS/HOD/TestDriver/src/test/java/stuios/TC046.java
/mnt/gaiagpfs/users/workdirs/cwang/Journal/STUIOS/HOD/TestDriver/src/test/java/stuios/TC094.java
/mnt/gaiagpfs/users/workdirs/cwang/Journal/STUIOS/HOD/TestDriver/src/test/java/stuios/TC027.java
/mnt/gaiagpfs/users/workdirs/cwang/Journal/STUIOS/HOD/TestDriver/src/test/java/tc0/TC002.java
/mnt/gaiagpfs/users/workdirs/cwang/Journal/STUIOS/HOD/TestDriver/src/test/java/tc0/TC027.java
/mnt/gaiagpfs/users/workdirs/cwang/Journal/STUIOS/HOD/TestDriver/src/test/java/tc0/TC008.java
/mnt/gaiagpfs/users/workdirs/cwang/Journal/STUIOS/HOD/TestDriver/src/test/java/tc0/TC021.java
/mnt/gaiagpfs/users/workdirs/cwang/Journal/STUIOS/HOD/TestDriver/src/test/java/stuios/TC002.java
/mnt/gaiagpfs/users/workdirs/cwang/Journal/STUIOS/HOD/TestDriver/src/test/java/stuios/TC021.java
/mnt/gaiagpfs/users/workdirs/cwang/Journal/STUIOS/HOD/TestDriver/src/test/java/tc0/TC040.java
/mnt/gaiagpfs/users/workdirs/cwang/Journal/STUIOS/HOD/TestDriver/src/test/java/tc0/TC046.java
/mnt/gaiagpfs/users/workdirs/cwang/Journal/STUIOS/HOD/TestDriver/src/test/java/stuios/TC056.java
/mnt/gaiagpfs/users/workdirs/cwang/Journal/STUIOS/HOD/TestDriver/src/test/java/stuios/TC075.java
/mnt/gaiagpfs/users/workdirs/cwang/Journal/STUIOS/HOD/TestDriver/src/test/java/tc0/TC065.java
/mnt/gaiagpfs/users/workdirs/cwang/Journal/STUIOS/HOD/TestDriver/src/test/java/tc0/TC068.java
/mnt/gaiagpfs/users/workdirs/cwang/Journal/STUIOS/HOD/TestDriver/src/test/java/stuios/TC073.java
/mnt/gaiagpfs/users/workdirs/cwang/Journal/STUIOS/HOD/TestDriver/src/test/java/tc0/TC006.java
/mnt/gaiagpfs/users/workdirs/cwang/Journal/STUIOS/HOD/TestDriver/src/test/java/tc0/TC023.java
/mnt/gaiagpfs/users/workdirs/cwang/Journal/STUIOS/HOD/TestDriver/src/test/java/stuios/TC090.java
/mnt/gaiagpfs/users/workdirs/cwang/Journal/STUIOS/HOD/TestDriver/src/test/java/tc0/TC037.java
/mnt/gaiagpfs/users/workdirs/cwang/Journal/STUIOS/HOD/TestDriver/src/test/java/stuios/TC087.java
/mnt/gaiagpfs/users/workdirs/cwang/Journal/STUIOS/HOD/TestDriver/src/test/java/stuios/TC042.java
/mnt/gaiagpfs/users/workdirs/cwang/Journal/STUIOS/HOD/TestDriver/src/test/java/tc0/TC071.java
/mnt/gaiagpfs/users/workdirs/cwang/Journal/STUIOS/HOD/TestDriver/src/test/java/stuios/TC008.java
/mnt/gaiagpfs/users/workdirs/cwang/Journal/STUIOS/HOD/TestDriver/src/test/java/tc0/TC052.java
/mnt/gaiagpfs/users/workdirs/cwang/Journal/STUIOS/HOD/TestDriver/src/test/java/tc0/TC083.java
/mnt/gaiagpfs/users/workdirs/cwang/Journal/STUIOS/HOD/TestDriver/src/test/java/stuios/TC071.java
/mnt/gaiagpfs/users/workdirs/cwang/Journal/STUIOS/HOD/TestDriver/src/test/java/tc0/TC066.java
/mnt/gaiagpfs/users/workdirs/cwang/Journal/STUIOS/HOD/TestDriver/src/test/java/stuios/TC058.java
/mnt/gaiagpfs/users/workdirs/cwang/Journal/STUIOS/HOD/TestDriver/src/test/java/tc0/TC085.java
/mnt/gaiagpfs/users/workdirs/cwang/Journal/STUIOS/HOD/TestDriver/src/test/java/stuios/TC039.java
/mnt/gaiagpfs/users/workdirs/cwang/Journal/STUIOS/HOD/TestDriver/src/test/java/tc0/TC004.java
/mnt/gaiagpfs/users/workdirs/cwang/Journal/STUIOS/HOD/TestDriver/src/test/java/stuios/TC044.java
/mnt/gaiagpfs/users/workdirs/cwang/Journal/STUIOS/HOD/TestDriver/src/test/java/tc0/TC018.java
/mnt/gaiagpfs/users/workdirs/cwang/Journal/STUIOS/HOD/TestDriver/src/test/java/stuios/TC011.java
/mnt/gaiagpfs/users/workdirs/cwang/Journal/STUIOS/HOD/TestDriver/src/test/java/tc0/TC099.java
/mnt/gaiagpfs/users/workdirs/cwang/Journal/STUIOS/HOD/TestDriver/src/test/java/stuios/TC025.java
/mnt/gaiagpfs/users/workdirs/cwang/Journal/STUIOS/HOD/TestDriver/src/test/java/stuios/TC030.java
/mnt/gaiagpfs/users/workdirs/cwang/Journal/STUIOS/HOD/TestDriver/src/test/java/tc0/TC073.java
/mnt/gaiagpfs/users/workdirs/cwang/Journal/STUIOS/HOD/TestDriver/src/test/java/stuios/TC006.java
/mnt/gaiagpfs/users/workdirs/cwang/Journal/STUIOS/HOD/TestDriver/src/test/java/tc0/TC042.java
/mnt/gaiagpfs/users/workdirs/cwang/Journal/STUIOS/HOD/TestDriver/src/test/java/stuios/TC029.java
/mnt/gaiagpfs/users/workdirs/cwang/Journal/STUIOS/HOD/TestDriver/src/test/java/stuios/TC092.java
/mnt/gaiagpfs/users/workdirs/cwang/Journal/STUIOS/HOD/TestDriver/src/test/java/stuios/TC023.java
/mnt/gaiagpfs/users/workdirs/cwang/Journal/STUIOS/HOD/TestDriver/src/test/java/tc0/TC095.java
/mnt/gaiagpfs/users/workdirs/cwang/Journal/STUIOS/HOD/TestDriver/src/test/java/tc0/TC064.java
/mnt/gaiagpfs/users/workdirs/cwang/Journal/STUIOS/HOD/TestDriver/src/test/java/tc0/TC025.java
/mnt/gaiagpfs/users/workdirs/cwang/Journal/STUIOS/HOD/TestDriver/src/test/java/stuios/TC099.java
/mnt/gaiagpfs/users/workdirs/cwang/Journal/STUIOS/HOD/TestDriver/src/test/java/stuios/TC054.java
/mnt/gaiagpfs/users/workdirs/cwang/Journal/STUIOS/HOD/TestDriver/src/test/java/stuios/TC001.java
/mnt/gaiagpfs/users/workdirs/cwang/Journal/STUIOS/HOD/TestDriver/src/test/java/tc0/TC013.java
/mnt/gaiagpfs/users/workdirs/cwang/Journal/STUIOS/HOD/TestDriver/src/test/java/tc0/TC016.java
/mnt/gaiagpfs/users/workdirs/cwang/Journal/STUIOS/HOD/TestDriver/src/test/java/stuios/TC032.java
/mnt/gaiagpfs/users/workdirs/cwang/Journal/STUIOS/HOD/TestDriver/src/test/java/stuios/TC013.java
/mnt/gaiagpfs/users/workdirs/cwang/Journal/STUIOS/HOD/TestDriver/src/test/java/stuios/TC061.java
/mnt/gaiagpfs/users/workdirs/cwang/Journal/STUIOS/HOD/TestDriver/src/test/java/tc0/TC035.java
/mnt/gaiagpfs/users/workdirs/cwang/Journal/STUIOS/HOD/TestDriver/src/test/java/tc0/TC092.java
/mnt/gaiagpfs/users/workdirs/cwang/Journal/STUIOS/HOD/TestDriver/src/test/java/stuios/TC089.java
/mnt/gaiagpfs/users/workdirs/cwang/Journal/STUIOS/HOD/TestDriver/src/test/java/tc0/TC054.java
/mnt/gaiagpfs/users/workdirs/cwang/Journal/STUIOS/HOD/TestDriver/src/test/java/stuios/TC080.java
/mnt/gaiagpfs/users/workdirs/cwang/Journal/STUIOS/HOD/TestDriver/src/test/java/stuios/TC083.java
